%YAML 1.1
%TAG !u! tag:unity3d.com,2011:
--- !u!1045 &1
EditorBuildSettings:
  m_ObjectHideFlags: 0
  serializedVersion: 2
  m_Scenes:
  - enabled: 1
    path: Assets/Scenes/BarcosBarcosBarcos.unity
    guid: 9628883851941fd428cd6eb1eae22e2e
  - enabled: 1
    path: Assets/Scenes/MainMenu.unity
    guid: 9bef118e7b422874db725a8ea2992afe
  m_configObjects: {}
